<svg xmlns="http://www.w3.org/2000/svg" fill="none" viewBox="0 0 108 29">
  <path fill="#EC5228" d="M67.928 22.556c.22.073.424.183.605.327.18.145.338.316.467.507.135.205.237.429.303.665.073.255.109.52.107.786a2.73 2.73 0 0 1-.167.97 2.056 2.056 0 0 1-1.167 1.229 2.287 2.287 0 0 1-.888.17c-.582 0-1.038-.197-1.37-.594H65.8V29h-1.243v-6.48H65.8v.531h.019c.347-.405.816-.608 1.406-.608.239-.001.476.037.703.113Zm-.112 3.198a1.27 1.27 0 0 0 .332-.909c0-.387-.112-.7-.338-.936a1.119 1.119 0 0 0-.85-.36 1.2 1.2 0 0 0-.49.1 1.133 1.133 0 0 0-.382.27 1.24 1.24 0 0 0-.248.41 1.43 1.43 0 0 0-.09.512c-.005.23.05.457.16.66.098.188.25.344.436.449.187.104.4.157.614.154a1.126 1.126 0 0 0 .856-.35Zm7.157-3.233v4.612h-1.182v-.558h-.024c-.33.426-.793.64-1.387.64a2.284 2.284 0 0 1-.888-.171 2.07 2.07 0 0 1-.706-.477 2.192 2.192 0 0 1-.462-.752 2.897 2.897 0 0 1 0-1.935c.102-.28.257-.539.458-.76a2.113 2.113 0 0 1 1.561-.674 1.733 1.733 0 0 1 1.369.6h.018v-.522l1.243-.003Zm-1.53 3.233a1.257 1.257 0 0 0 .339-.909 1.33 1.33 0 0 0-.332-.922 1.075 1.075 0 0 0-.838-.37 1.131 1.131 0 0 0-.85.36c-.229.236-.343.548-.343.936-.013.332.105.657.329.905a1.125 1.125 0 0 0 .856.35 1.118 1.118 0 0 0 .835-.35h.004Zm7.077-3.233h-1.286l-1.063 2.855h-.014L77.02 22.52h-1.296l1.855 4.326-.825 2.156h1.27l2.501-6.48-.005-.002Zm7.649.415c-.286-.33-.69-.494-1.209-.494a2.167 2.167 0 0 0-.913.192 1.87 1.87 0 0 0-.697.551h-.015c-.271-.494-.73-.742-1.378-.742-.261 0-.518.062-.752.18-.245.122-.46.296-.632.508h-.014v-.609h-1.247v4.613h1.245v-2.308a1.698 1.698 0 0 1 .129-.694.97.97 0 0 1 .349-.436.891.891 0 0 1 .5-.143c.548 0 .822.4.822 1.199v2.384H85.6v-2.31a1.73 1.73 0 0 1 .128-.694.977.977 0 0 1 .34-.436.843.843 0 0 1 .478-.143c.542 0 .813.4.813 1.199v2.384h1.244v-2.684c0-.682-.143-1.188-.43-1.517h-.004Zm5.919 2.292h-3.253c.062.257.212.485.424.645.22.161.486.246.759.24a1.371 1.371 0 0 0 1.108-.52l.808.747c-.221.272-.504.49-.826.634-.37.164-.773.245-1.179.237a2.523 2.523 0 0 1-1.22-.293 2.142 2.142 0 0 1-.856-.841 2.486 2.486 0 0 1-.313-1.258 2.59 2.59 0 0 1 .18-.961 2.144 2.144 0 0 1 1.21-1.243c.292-.118.602-.177.916-.175.417-.008.83.096 1.192.302.342.196.62.486.803.835.193.372.29.786.283 1.205.006.149-.005.297-.033.443l-.003.003Zm-2.862-1.492a1.077 1.077 0 0 0-.382.599h2.046a1.112 1.112 0 0 0-.353-.592.971.971 0 0 0-.65-.215 1.07 1.07 0 0 0-.661.208Zm7.32-1.188a2.1 2.1 0 0 0-1.503.065 1.898 1.898 0 0 0-.67.5h-.015v-.595h-1.244v4.612h1.244v-2.317c0-.403.095-.713.285-.932a.966.966 0 0 1 .768-.328c.302 0 .526.087.674.26.147.172.22.471.217.897v2.43h1.244v-2.739a3.016 3.016 0 0 0-.121-.903 1.452 1.452 0 0 0-.35-.61 1.446 1.446 0 0 0-.53-.333v-.006Zm2.66 4.273c.241.262.565.393.974.393a2.68 2.68 0 0 0 .695-.073c.186-.052.365-.124.535-.217l-.321-.988a1.29 1.29 0 0 1-.584.162.351.351 0 0 1-.314-.144.825.825 0 0 1-.095-.449v-1.96h1.265V22.52h-1.265v-1.642l-1.243.138v1.508h-.551v1.024h.548v2.13c0 .505.118.887.354 1.147l.002-.005Zm2.691-.284c.519.453 1.19.695 1.88.678.584 0 1.03-.132 1.338-.396a1.29 1.29 0 0 0 .35-.466c.08-.18.119-.376.112-.572a1.526 1.526 0 0 0-.028-.309 1.09 1.09 0 0 0-.542-.737c-.174-.11-.517-.26-1.03-.45a2.74 2.74 0 0 1-.532-.25.303.303 0 0 1-.164-.248.288.288 0 0 1 .139-.256.567.567 0 0 1 .315-.09c.193.004.383.045.56.122.203.09.389.213.549.367l.604-.904a2.784 2.784 0 0 0-.804-.442 2.758 2.758 0 0 0-.895-.139 2.041 2.041 0 0 0-.851.17 1.418 1.418 0 0 0-.598.488 1.238 1.238 0 0 0-.221.725c-.001.136.016.27.051.402.031.117.082.227.151.328.065.093.139.18.223.257.088.083.187.153.294.21.109.061.222.116.337.164.109.046.234.09.373.138.22.072.384.131.494.18.093.037.18.087.258.15a.247.247 0 0 1 .09.187.325.325 0 0 1-.154.276.72.72 0 0 1-.417.107c-.47 0-.898-.18-1.285-.54l-.604.854.007-.004ZM27.777 1.392v16.93a5.138 5.138 0 0 1-1.518 3.645 5.201 5.201 0 0 1-3.667 1.51h-8.698v4.748a.772.772 0 0 1-.228.547.781.781 0 0 1-.55.227H5.184a5.201 5.201 0 0 1-3.666-1.51A5.138 5.138 0 0 1 0 23.847V6.533C0 5.166.546 3.856 1.519 2.89a5.201 5.201 0 0 1 3.666-1.51l22.592.013ZM44.255 5.29a6.188 6.188 0 0 0-1.994-.32c-1.673 0-3.001.575-3.984 1.724h-.054V5.191H34.7v16.91h1.835a1.698 1.698 0 0 0 1.195-.494c.316-.315.494-.742.494-1.188v-3.623h.053c.94 1.122 2.233 1.684 3.88 1.685a6.496 6.496 0 0 0 2.517-.484 5.848 5.848 0 0 0 1.999-1.348 6.153 6.153 0 0 0 1.31-2.136c.322-.881.48-1.813.47-2.75a8.002 8.002 0 0 0-.298-2.228 6.586 6.586 0 0 0-.861-1.886 6.355 6.355 0 0 0-1.321-1.437 5.55 5.55 0 0 0-1.717-.927v.004Zm-.315 9.056c-.625.662-1.434.993-2.426.994a3.506 3.506 0 0 1-1.743-.43 3.153 3.153 0 0 1-1.236-1.257 3.813 3.813 0 0 1-.452-1.87 4.05 4.05 0 0 1 .256-1.453c.156-.432.395-.828.706-1.168a3.233 3.233 0 0 1 1.084-.765c.437-.19.91-.285 1.386-.28a3.193 3.193 0 0 1 2.406 1.01c.64.67.96 1.554.961 2.65 0 1.052-.314 1.91-.94 2.572l-.002-.003Zm19.002-1.49c.06-.217.09-.636.09-1.257a7.169 7.169 0 0 0-.803-3.413 5.863 5.863 0 0 0-2.275-2.365c-.982-.57-2.108-.855-3.377-.856a6.766 6.766 0 0 0-2.587.497 6.087 6.087 0 0 0-2.07 1.378 6.39 6.39 0 0 0-1.356 2.144c-.34.87-.51 1.795-.503 2.728 0 1.332.295 2.517.887 3.554a6.073 6.073 0 0 0 2.426 2.384 7.163 7.163 0 0 0 3.457.83c1.265 0 2.38-.225 3.343-.674a6.357 6.357 0 0 0 2.34-1.796L61.35 14.93a1.673 1.673 0 0 0-2.052-.193 3.87 3.87 0 0 1-2.212.629c-.844-.01-1.56-.236-2.148-.68a3.263 3.263 0 0 1-1.203-1.83h9.217l-.01-.002Zm-8.108-4.22a3.034 3.034 0 0 1 1.872-.583c.743 0 1.357.202 1.84.605.484.403.817.962.999 1.678H53.74c.202-.742.563-1.309 1.084-1.7h.01Zm23.364-3.444h-3.524v1.472h-.051c-.984-1.132-2.277-1.698-3.88-1.699a5.984 5.984 0 0 0-2.45.515 5.873 5.873 0 0 0-1.967 1.397 6.473 6.473 0 0 0-1.293 2.156 8.176 8.176 0 0 0 0 5.479 6.153 6.153 0 0 0 1.312 2.13 5.827 5.827 0 0 0 1.999 1.347 6.495 6.495 0 0 0 2.516.484c1.68 0 2.99-.602 3.93-1.804h.063a1.572 1.572 0 0 0 .464 1.124 1.594 1.594 0 0 0 1.13.465h1.756V5.191h-.005Zm-4.337 9.162a3.15 3.15 0 0 1-2.37.993c-.99 0-1.798-.331-2.425-.993-.627-.662-.941-1.52-.941-2.572 0-1.096.322-1.98.965-2.651a3.197 3.197 0 0 1 2.413-1.006 3.058 3.058 0 0 1 2.373 1.045c.63.688.944 1.558.944 2.61 0 1.051-.32 1.908-.96 2.571l.001.003Zm9.823 3.282a7.098 7.098 0 0 0 3.468.846 8.458 8.458 0 0 0 3.397-.653c1.003-.433 1.807-1 2.413-1.7l-1.356-1.186a1.664 1.664 0 0 0-1.949-.203 4.059 4.059 0 0 1-2.168.585c-1.045 0-1.893-.335-2.545-1.005-.652-.67-.978-1.542-.978-2.614a4.09 4.09 0 0 1 .252-1.45c.154-.423.394-.81.705-1.138.314-.32.693-.572 1.112-.738a3.754 3.754 0 0 1 1.432-.27 3.884 3.884 0 0 1 3.062 1.403l2.38-2.038a6.312 6.312 0 0 0-2.47-1.861 7.79 7.79 0 0 0-3.115-.647c-1.339 0-2.535.283-3.588.849a6.113 6.113 0 0 0-2.458 2.39c-.586 1.038-.879 2.214-.88 3.529-.001 1.314.29 2.486.874 3.514a6.083 6.083 0 0 0 2.412 2.385v.002Zm21.012-12.373a6.542 6.542 0 0 0-4.337.164 5.256 5.256 0 0 0-1.898 1.347h-.057v-5.09a1.674 1.674 0 0 0-.496-1.191A1.694 1.694 0 0 0 96.709 0h-1.834v18.257h3.524v-6.624c0-1.15.271-2.024.813-2.62.542-.597 1.295-.897 2.259-.899.877 0 1.523.24 1.939.719.417.479.625 1.296.625 2.453v6.977h3.537v-7.859a8.057 8.057 0 0 0-.353-2.529 3.877 3.877 0 0 0-.939-1.618 3.906 3.906 0 0 0-1.591-.995h.007Z"/>
</svg>
